<?xml version="1.0" encoding="UTF-8" standalone="no"?> <!-- Created with Vectornator for iOS (http://vectornator.io/) --><!DOCTYPE svg PUBLIC "-//W3C//DTD SVG 1.1//EN" "http://www.w3.org/Graphics/SVG/1.1/DTD/svg11.dtd">
<svg style="fill-rule:evenodd;clip-rule:evenodd;stroke-linecap:round;stroke-linejoin:round;" xmlns:vectornator="http://vectornator.io" xmlns:xlink="http://www.w3.org/1999/xlink" xmlns="http://www.w3.org/2000/svg" xml:space="preserve" version="1.1" viewBox="0 0 120 120">
<metadata>
<vectornator:setting key="DimensionsVisible" value="1"/>
<vectornator:setting key="SnapToGrid" value="0"/>
<vectornator:setting key="SnapToPoints" value="0"/>
<vectornator:setting key="GuidesVisible" value="1"/>
<vectornator:setting key="RulersVisible" value="1"/>
<vectornator:setting key="CMYKEnabledKey" value="0"/>
<vectornator:setting key="SnapToEdges" value="1"/>
<vectornator:setting key="DisplayWhiteBackground" value="0"/>
<vectornator:setting key="SnapToGuides" value="1"/>
<vectornator:setting key="GridSpacing" value="36"/>
<vectornator:setting key="Units" value="Pixels"/>
<vectornator:setting key="DynamicGuides" value="0"/>
<vectornator:setting key="New" value="1"/>
</metadata>
<defs/>
<g id="Sun" vectornator:layerName="Sun">
<g opacity="1">
<path stroke="#000000" stroke-width="0.5" d="M36.5743+79.3244L38.4247+81.1679C39.5734+82.3123+39.5757+84.17+38.4298+85.3171L21.8301+101.935C20.6842+103.083+18.8241+103.085+17.6754+101.94L15.8249+100.097C14.6762+98.9525+14.674+97.0948+15.8199+95.9477L32.4195+79.3294C33.5654+78.1822+35.4256+78.18+36.5743+79.3244Z" fill="#ffffff" stroke-linecap="round" opacity="1" stroke-linejoin="round"/>
<path stroke="#000000" stroke-width="0.5" d="M102.645+102.425L104.496+100.581C105.645+99.4366+105.647+97.5789+104.501+96.4317L87.9013+79.8135C86.7554+78.6663+84.8952+78.664+83.7465+79.8084L81.8961+81.6519C80.7474+82.7963+80.7451+84.654+81.891+85.8012L98.4907+102.419C99.6366+103.567+101.497+103.569+102.645+102.425Z" fill="#ffffff" stroke-linecap="round" opacity="1" stroke-linejoin="round"/>
<path stroke="#000000" stroke-width="0.5" d="M18.892+16.6344L17.0415+18.4779C15.8928+19.6223+15.8906+21.48+17.0365+22.6272L33.6361+39.2454C34.782+40.3926+36.6422+40.3949+37.7909+39.2505L39.6413+37.407C40.79+36.2626+40.7923+34.4049+39.6464+33.2577L23.0467+16.6395C21.9008+15.4923+20.0407+15.49+18.892+16.6344Z" fill="#ffffff" stroke-linecap="round" opacity="1" stroke-linejoin="round"/>
<path stroke="#000000" stroke-width="0.5" d="M102.621+17.4569L104.471+19.3004C105.62+20.4448+105.622+22.3025+104.476+23.4497L87.8767+40.0679C86.7308+41.2151+84.8706+41.2174+83.7219+40.073L81.8715+38.2294C80.7228+37.0851+80.7205+35.2274+81.8664+34.0802L98.4661+17.4619C99.612+16.3147+101.472+16.3125+102.621+17.4569Z" fill="#ffffff" stroke-linecap="round" opacity="1" stroke-linejoin="round"/>
<path stroke="#000000" stroke-width="0.5" d="M59.099+0.354592L61.7128+0.354592C63.3353+0.354592+64.6506+1.66818+64.6506+3.28857L64.6506+26.7617C64.6506+28.3821+63.3353+29.6957+61.7128+29.6957L59.099+29.6957C57.4765+29.6957+56.1612+28.3821+56.1612+26.7617L56.1612+3.28857C56.1612+1.66818+57.4765+0.354592+59.099+0.354592Z" fill="#ffffff" stroke-linecap="round" opacity="1" stroke-linejoin="round"/>
<path stroke="#000000" stroke-width="0.5" d="M58.839+90.3043L61.4528+90.3043C63.0753+90.3043+64.3906+91.6179+64.3906+93.2383L64.3906+116.711C64.3906+118.332+63.0753+119.645+61.4528+119.645L58.839+119.645C57.2165+119.645+55.9012+118.332+55.9012+116.711L55.9012+93.2383C55.9012+91.6179+57.2165+90.3043+58.839+90.3043Z" fill="#ffffff" stroke-linecap="round" opacity="1" stroke-linejoin="round"/>
<path stroke="#ffffff" stroke-width="7.47" d="M36.977+60C36.977+47.0776+47.4665+36.6019+60.4059+36.6019C73.3454+36.6019+83.8349+47.0776+83.8349+60C83.8349+72.9224+73.3454+83.3981+60.4059+83.3981C47.4665+83.3981+36.977+72.9224+36.977+60Z" fill="none" stroke-linecap="round" opacity="1" stroke-linejoin="round"/>
<path stroke="#000000" stroke-width="0.5" d="M90.6202+61.3052L90.6202+58.6948C90.6202+57.0744+91.9355+55.7609+93.558+55.7609L117.062+55.7609C118.685+55.7609+120+57.0744+120+58.6948L120+61.3052C120+62.9256+118.685+64.2391+117.062+64.2391L93.558+64.2391C91.9355+64.2391+90.6202+62.9256+90.6202+61.3052Z" fill="#ffffff" stroke-linecap="round" opacity="1" stroke-linejoin="round"/>
<path stroke="#000000" stroke-width="0.5" d="M-4.66067e-07+61.3052L-4.34898e-07+58.6948C-4.1555e-07+57.0744+1.31532+55.7609+2.93785+55.7609L26.442+55.7609C28.0645+55.7609+29.3798+57.0744+29.3798+58.6948L29.3798+61.3052C29.3798+62.9256+28.0645+64.2391+26.442+64.2391L2.93785+64.2391C1.31532+64.2391-4.85415e-07+62.9256-4.66067e-07+61.3052Z" fill="#ffffff" stroke-linecap="round" opacity="1" stroke-linejoin="round"/>
<path stroke="#000000" stroke-width="0.5" d="M33.1806+60C33.1806+44.9837+45.3698+32.8106+60.4059+32.8106C75.442+32.8106+87.6312+44.9837+87.6312+60C87.6312+75.0163+75.442+87.1894+60.4059+87.1894C45.3698+87.1894+33.1806+75.0163+33.1806+60Z" fill="none" stroke-linecap="round" opacity="1" stroke-linejoin="round"/>
</g>
</g>
</svg>
