<?xml version="1.0" encoding="UTF-8" standalone="no"?> <!-- Created with Vectornator for iOS (http://vectornator.io/) --><!DOCTYPE svg PUBLIC "-//W3C//DTD SVG 1.1//EN" "http://www.w3.org/Graphics/SVG/1.1/DTD/svg11.dtd">
<svg height="100%" style="fill-rule:evenodd;clip-rule:evenodd;stroke-linecap:round;stroke-linejoin:round;" xmlns:xlink="http://www.w3.org/1999/xlink" xmlns="http://www.w3.org/2000/svg" xml:space="preserve" width="100%" xmlns:vectornator="http://vectornator.io" version="1.1" viewBox="0 0 120 120">
<metadata>
<vectornator:setting key="DimensionsVisible" value="1"/>
<vectornator:setting key="SnapToGrid" value="0"/>
<vectornator:setting key="SnapToPoints" value="0"/>
<vectornator:setting key="GuidesVisible" value="1"/>
<vectornator:setting key="RulersVisible" value="1"/>
<vectornator:setting key="CMYKEnabledKey" value="0"/>
<vectornator:setting key="SnapToEdges" value="1"/>
<vectornator:setting key="DisplayWhiteBackground" value="0"/>
<vectornator:setting key="SnapToGuides" value="1"/>
<vectornator:setting key="GridSpacing" value="36"/>
<vectornator:setting key="Units" value="Pixels"/>
<vectornator:setting key="DynamicGuides" value="0"/>
<vectornator:setting key="New" value="1"/>
</metadata>
<defs/>
<g id="Scattered_clouds" vectornator:layerName="Scattered_clouds">
<path stroke="#000000" stroke-width="0.5" d="M44.5091+23.4795C30.195+23.4795+18.6017+35.1085+18.6017+49.4226C18.6017+50.501+18.7954+51.5234+18.9233+52.5672C8.02165+55.1471-0.0516191+63.7624-0.0516191+74.1151C-0.0516177+86.4988+11.4138+96.5205+25.5699+96.5205L94.4301+96.5205C108.586+96.5205+120.052+86.4988+120.052+74.1151C120.052+63.2144+111.146+54.1221+99.3614+52.1027C97.0155+41.4294+87.512+33.4136+76.1341+33.4136C72.6318+33.4136+69.337+34.2345+66.3429+35.5934C61.7486+28.3407+53.7297+23.4795+44.5091+23.4795Z" fill="#ffffff" stroke-linecap="round" opacity="1" stroke-linejoin="round"/>
</g>
</svg>
