<?xml version="1.0" encoding="UTF-8" standalone="no"?> <!-- Created with Vectornator for iOS (http://vectornator.io/) --><!DOCTYPE svg PUBLIC "-//W3C//DTD SVG 1.1//EN" "http://www.w3.org/Graphics/SVG/1.1/DTD/svg11.dtd">
<svg height="100%" style="fill-rule:evenodd;clip-rule:evenodd;stroke-linecap:round;stroke-linejoin:round;" xmlns:xlink="http://www.w3.org/1999/xlink" xmlns="http://www.w3.org/2000/svg" xml:space="preserve" width="100%" xmlns:vectornator="http://vectornator.io" version="1.1" viewBox="0 0 120 120">
<metadata>
<vectornator:setting key="DimensionsVisible" value="1"/>
<vectornator:setting key="SnapToGrid" value="0"/>
<vectornator:setting key="SnapToPoints" value="0"/>
<vectornator:setting key="GuidesVisible" value="1"/>
<vectornator:setting key="RulersVisible" value="1"/>
<vectornator:setting key="CMYKEnabledKey" value="0"/>
<vectornator:setting key="SnapToEdges" value="1"/>
<vectornator:setting key="DisplayWhiteBackground" value="0"/>
<vectornator:setting key="SnapToGuides" value="1"/>
<vectornator:setting key="GridSpacing" value="36"/>
<vectornator:setting key="Units" value="Pixels"/>
<vectornator:setting key="DynamicGuides" value="0"/>
<vectornator:setting key="New" value="1"/>
</metadata>
<defs/>
<g id="Broken_clouds" vectornator:layerName="Broken_clouds">
<path stroke="#000000" stroke-width="0.5" d="M64.0934+22.4867C53.4887+22.4867+44.8998+31.1021+44.8998+41.7068C44.8998+42.5057+45.0433+43.2632+45.1381+44.0365C37.0615+45.9477+31.0804+52.3304+31.0804+60.0002C31.0804+69.1747+39.5746+76.5994+50.0622+76.5994L101.077+76.5994C111.565+76.5994+120.059+69.1747+120.059+60.0002C120.059+51.9245+113.461+45.1884+104.731+43.6923C102.993+35.785+95.9521+29.8465+87.5227+29.8465C84.9281+29.8465+82.4871+30.4546+80.2689+31.4614C76.8653+26.0882+70.9244+22.4867+64.0934+22.4867Z" fill="#ffffff" stroke-linecap="round" opacity="1" stroke-linejoin="round"/>
<path stroke="#000000" stroke-width="0.5" d="M32.9538+43.4006C22.3492+43.4006+13.7602+52.0161+13.7602+62.6207C13.7602+63.4196+13.9037+64.1771+13.9985+64.9504C5.92195+66.8616-0.05915+73.2443-0.05915+80.9141C-0.0591489+90.0886+8.43505+97.5133+18.9226+97.5133L69.9378+97.5133C80.4254+97.5133+88.9196+90.0886+88.9196+80.9141C88.9196+72.8384+82.3219+66.1023+73.5912+64.6062C71.8532+56.6989+64.8125+50.7604+56.3832+50.7604C53.7885+50.7604+51.3475+51.3685+49.1293+52.3753C45.7257+47.0021+39.7849+43.4006+32.9538+43.4006Z" fill="#ffffff" stroke-linecap="round" opacity="1" stroke-linejoin="round"/>
</g>
</svg>
