<?xml version="1.0" encoding="UTF-8" standalone="no"?> <!-- Created with Vectornator for iOS (http://vectornator.io/) --><!DOCTYPE svg PUBLIC "-//W3C//DTD SVG 1.1//EN" "http://www.w3.org/Graphics/SVG/1.1/DTD/svg11.dtd">
<svg height="100%" style="fill-rule:evenodd;clip-rule:evenodd;stroke-linecap:round;stroke-linejoin:round;" xmlns:xlink="http://www.w3.org/1999/xlink" xmlns="http://www.w3.org/2000/svg" xml:space="preserve" width="100%" xmlns:vectornator="http://vectornator.io" version="1.1" viewBox="0 0 120 120">
<metadata>
<vectornator:setting key="DimensionsVisible" value="1"/>
<vectornator:setting key="SnapToGrid" value="0"/>
<vectornator:setting key="SnapToPoints" value="0"/>
<vectornator:setting key="GuidesVisible" value="1"/>
<vectornator:setting key="RulersVisible" value="1"/>
<vectornator:setting key="CMYKEnabledKey" value="0"/>
<vectornator:setting key="SnapToEdges" value="0"/>
<vectornator:setting key="DisplayWhiteBackground" value="0"/>
<vectornator:setting key="SnapToGuides" value="1"/>
<vectornator:setting key="GridSpacing" value="36"/>
<vectornator:setting key="Units" value="Pixels"/>
<vectornator:setting key="DynamicGuides" value="1"/>
<vectornator:setting key="New" value="1"/>
</metadata>
<defs/>
<g id="Light_snow" vectornator:layerName="Light_snow">
<g opacity="1">
<path stroke="#000000" stroke-width="0.5" d="M37.9838+36.5774C37.8665+36.617+36.7875+36.6071+36.6843+36.544C36.5812+36.4809+35.621+36.0177+35.621+36.0177L35.6042+12.9823C35.6042+12.9823+35.7882+12.2993+36.1527+12.0189C36.5173+11.7384+37.2049+11.9087+37.2964+11.9386C37.4398+11.9854+37.9788+12.3736+38.0087+12.6455C38.029+12.8185+38.0907+36.4875+38.0907+36.4875C38.0907+36.4875+38.101+36.5377+37.9838+36.5774Z" fill="#ffffff" stroke-linecap="round" fill-opacity="0" opacity="1" stroke-linejoin="round"/>
<path stroke="#000000" stroke-width="0.5" d="M36.6787+35.5624C36.7184+35.6797+36.7084+36.7587+36.6454+36.8619C36.5823+36.965+36.119+37.9252+36.119+37.9252L13.0837+37.9421C13.0837+37.9421+12.4007+37.758+12.1202+37.3935C11.8397+37.0289+12.0101+36.3413+12.0399+36.2498C12.0867+36.1064+12.4749+35.5674+12.7469+35.5375C12.9198+35.5172+36.5889+35.4555+36.5889+35.4555C36.5889+35.4555+36.639+35.4452+36.6787+35.5624Z" fill="#ffffff" stroke-linecap="round" fill-opacity="0" opacity="1" stroke-linejoin="round"/>
<path stroke="#000000" stroke-width="0.5" d="M83.491+84.356C83.4514+84.2387+83.4613+83.1597+83.5244+83.0566C83.5875+82.9534+84.0507+81.9932+84.0507+81.9932L107.086+81.9764C107.086+81.9764+107.769+82.1604+108.05+82.525C108.33+82.8895+108.16+83.5771+108.13+83.6686C108.083+83.812+107.695+84.351+107.423+84.3809C107.25+84.4012+83.5809+84.4629+83.5809+84.4629C83.5809+84.4629+83.5307+84.4732+83.491+84.356Z" fill="#ffffff" stroke-linecap="round" fill-opacity="0" opacity="1" stroke-linejoin="round"/>
<path stroke="#000000" stroke-width="0.5" d="M82.2394+83.3669C82.3566+83.3272+83.4356+83.3372+83.5388+83.4003C83.642+83.4633+84.6021+83.9266+84.6021+83.9266L84.619+106.962C84.619+106.962+84.435+107.645+84.0704+107.925C83.7058+108.206+83.0183+108.036+82.9267+108.006C82.7834+107.959+82.2444+107.571+82.2144+107.299C82.1942+107.126+82.1325+83.4568+82.1325+83.4568C82.1325+83.4568+82.1221+83.4066+82.2394+83.3669Z" fill="#ffffff" stroke-linecap="round" fill-opacity="0" opacity="1" stroke-linejoin="round"/>
<path stroke="#000000" stroke-width="0.5" d="M17.7537+18.4411C17.9866+17.9702+18.2965+17.7203+18.7957+17.5999C19.2949+17.4795+19.9607+18.1433+19.9607+18.1433L102.344+100.526C102.344+100.526+102.731+101.016+102.627+101.481C102.524+101.945+102.294+102.198+101.93+102.383C101.359+102.673+100.734+102.36+100.734+102.36L17.8665+19.4445C17.8665+19.4445+17.5208+18.9121+17.7537+18.4411Z" fill="#ffffff" stroke-linecap="round" fill-opacity="0" opacity="1" stroke-linejoin="round"/>
<path stroke="#ffffff" stroke-width="2" d="M101.386+101.27L18.8555+18.74" fill="#ffffff" stroke-linecap="round" opacity="1" stroke-linejoin="round"/>
<path stroke="#ffffff" stroke-width="2" d="M107.049+83.2674L83.3829+83.2674" fill="#ffffff" stroke-linecap="round" opacity="1" stroke-linejoin="round"/>
<path stroke="#ffffff" stroke-width="2" d="M83.3829+106.933L83.3829+83.2674" fill="#ffffff" stroke-linecap="round" opacity="1" stroke-linejoin="round"/>
<path stroke="#ffffff" stroke-width="2" d="M13.1923+36.7427L36.8582+36.7427" fill="#ffffff" stroke-linecap="round" opacity="1" stroke-linejoin="round"/>
<path stroke="#ffffff" stroke-width="2" d="M36.8582+13.0768L36.8582+36.7427" fill="#ffffff" stroke-linecap="round" opacity="1" stroke-linejoin="round"/>
<path stroke="#000000" stroke-width="0.5" d="M60.9905+27.6737C60.8795+27.6189+60.1236+26.8489+60.0952+26.7313C60.0669+26.6138+59.7155+25.6073+59.7155+25.6073L75.9921+9.30688C75.9921+9.30688+76.6051+8.95404+77.0613+9.01351C77.5174+9.07298+77.8831+9.67958+77.9267+9.76544C77.995+9.89992+78.1017+10.5555+77.9305+10.769C77.8225+10.9056+61.1296+27.6858+61.1296+27.6858C61.1296+27.6858+61.1015+27.7286+60.9905+27.6737Z" fill="#ffffff" stroke-linecap="round" fill-opacity="0" opacity="1" stroke-linejoin="round"/>
<path stroke="#000000" stroke-width="0.5" d="M60.7853+26.0333C60.7305+26.1442+59.9605+26.9001+59.8429+26.9285C59.7254+26.9569+58.7189+27.3082+58.7189+27.3082L42.4185+11.0317C42.4185+11.0317+42.0657+10.4186+42.1251+9.96249C42.1846+9.50637+42.7912+9.14064+42.8771+9.09704C43.0115+9.02875+43.6672+8.92209+43.8806+9.09324C44.0172+9.20121+60.7974+25.8941+60.7974+25.8941C60.7974+25.8941+60.8402+25.9223+60.7853+26.0333Z" fill="#ffffff" stroke-linecap="round" fill-opacity="0" opacity="1" stroke-linejoin="round"/>
<path stroke="#000000" stroke-width="0.5" d="M59.3844+93.6368C59.4393+93.5259+60.2093+92.7699+60.3268+92.7416C60.4444+92.7132+61.4509+92.3618+61.4509+92.3618L77.7513+108.638C77.7513+108.638+78.1041+109.251+78.0446+109.708C77.9852+110.164+77.3786+110.529+77.2927+110.573C77.1582+110.641+76.5026+110.748+76.2891+110.577C76.1525+110.469+59.3723+93.7759+59.3723+93.7759C59.3723+93.7759+59.3296+93.7478+59.3844+93.6368Z" fill="#ffffff" stroke-linecap="round" fill-opacity="0" opacity="1" stroke-linejoin="round"/>
<path stroke="#000000" stroke-width="0.5" d="M59.1987+92.0524C59.3097+92.1072+60.0656+92.8773+60.094+92.9948C60.1223+93.1124+60.4737+94.1188+60.4737+94.1188L44.1972+110.419C44.1972+110.419+43.5841+110.772+43.128+110.713C42.6718+110.653+42.3061+110.047+42.2625+109.961C42.1942+109.826+42.0876+109.171+42.2587+108.957C42.3667+108.82+59.0596+92.0403+59.0596+92.0403C59.0596+92.0403+59.0878+91.9975+59.1987+92.0524Z" fill="#ffffff" stroke-linecap="round" fill-opacity="0" opacity="1" stroke-linejoin="round"/>
<path stroke="#000000" stroke-width="0.5" d="M59.5099+0.544645C60.0077+0.376332+60.4034+0.418749+60.8416+0.686627C61.2797+0.954505+61.2811+1.89459+61.2811+1.89459L61.2811+118.402C61.2811+118.402+61.2082+119.022+60.8067+119.277C60.4053+119.532+60.064+119.549+59.6753+119.422C59.0664+119.223+58.8458+118.56+58.8458+118.56L58.8802+1.33395C58.8802+1.33395+59.0122+0.712957+59.5099+0.544645Z" fill="#ffffff" stroke-linecap="round" fill-opacity="0" opacity="1" stroke-linejoin="round"/>
<path stroke="#ffffff" stroke-width="2" d="M60.0777+118.25L60.0777+1.53502" fill="#ffffff" stroke-linecap="round" opacity="1" stroke-linejoin="round"/>
<path stroke="#ffffff" stroke-width="2" d="M76.812+109.525L60.0777+92.7906" fill="#ffffff" stroke-linecap="round" opacity="1" stroke-linejoin="round"/>
<path stroke="#ffffff" stroke-width="2" d="M43.3434+109.525L60.0777+92.7906" fill="#ffffff" stroke-linecap="round" opacity="1" stroke-linejoin="round"/>
<path stroke="#ffffff" stroke-width="2" d="M43.3434+10.2604L60.0777+26.9947" fill="#ffffff" stroke-linecap="round" opacity="1" stroke-linejoin="round"/>
<path stroke="#ffffff" stroke-width="2" d="M76.812+10.2604L60.0777+26.9947" fill="#ffffff" stroke-linecap="round" opacity="1" stroke-linejoin="round"/>
<path stroke="#000000" stroke-width="0.5" d="M83.4797+37.871C83.44+37.7538+83.4499+36.6748+83.513+36.5716C83.5761+36.4684+84.0393+35.5083+84.0393+35.5083L107.075+35.4914C107.075+35.4914+107.758+35.6754+108.038+36.04C108.319+36.4046+108.148+37.0921+108.118+37.1837C108.072+37.3271+107.683+37.8661+107.411+37.896C107.239+37.9162+83.5695+37.978+83.5695+37.978C83.5695+37.978+83.5193+37.9883+83.4797+37.871Z" fill="#ffffff" stroke-linecap="round" fill-opacity="0" opacity="1" stroke-linejoin="round"/>
<path stroke="#000000" stroke-width="0.5" d="M84.4946+36.566C84.3773+36.6057+83.2983+36.5957+83.1952+36.5326C83.092+36.4696+82.1318+36.0063+82.1318+36.0063L82.115+12.971C82.115+12.971+82.299+12.2879+82.6636+12.0075C83.0281+11.727+83.7157+11.8973+83.8072+11.9272C83.9506+11.974+84.4896+12.3622+84.5196+12.6342C84.5398+12.8071+84.6015+36.4761+84.6015+36.4761C84.6015+36.4761+84.6118+36.5263+84.4946+36.566Z" fill="#ffffff" stroke-linecap="round" fill-opacity="0" opacity="1" stroke-linejoin="round"/>
<path stroke="#000000" stroke-width="0.5" d="M35.701+83.3783C35.8183+83.3386+36.8973+83.3486+37.0005+83.4117C37.1036+83.4747+38.0638+83.938+38.0638+83.938L38.0807+106.973C38.0807+106.973+37.8966+107.656+37.5321+107.937C37.1675+108.217+36.4799+108.047+36.3884+108.017C36.245+107.97+35.706+107.582+35.6761+107.31C35.6558+107.137+35.5941+83.4681+35.5941+83.4681C35.5941+83.4681+35.5838+83.418+35.701+83.3783Z" fill="#ffffff" stroke-linecap="round" fill-opacity="0" opacity="1" stroke-linejoin="round"/>
<path stroke="#000000" stroke-width="0.5" d="M36.6901+82.1266C36.7298+82.2439+36.7198+83.3229+36.6567+83.4261C36.5937+83.5292+36.1304+84.4894+36.1304+84.4894L13.0951+84.5063C13.0951+84.5063+12.4121+84.3222+12.1316+83.9577C11.8511+83.5931+12.0214+82.9056+12.0513+82.814C12.0981+82.6706+12.4863+82.1316+12.7583+82.1017C12.9312+82.0814+36.6003+82.0197+36.6003+82.0197C36.6003+82.0197+36.6504+82.0094+36.6901+82.1266Z" fill="#ffffff" stroke-linecap="round" fill-opacity="0" opacity="1" stroke-linejoin="round"/>
<path stroke="#000000" stroke-width="0.5" d="M101.616+17.641C102.087+17.8739+102.337+18.1837+102.457+18.683C102.578+19.1822+101.914+19.8479+101.914+19.8479L19.5306+102.231C19.5306+102.231+19.0407+102.618+18.5764+102.514C18.1121+102.411+17.8587+102.182+17.6736+101.817C17.3837+101.246+17.6967+100.621+17.6967+100.621L100.612+17.7538C100.612+17.7538+101.145+17.408+101.616+17.641Z" fill="#ffffff" stroke-linecap="round" fill-opacity="0" opacity="1" stroke-linejoin="round"/>
<path stroke="#ffffff" stroke-width="2" d="M18.7868+101.273L101.317+18.7427" fill="#ffffff" stroke-linecap="round" opacity="1" stroke-linejoin="round"/>
<path stroke="#ffffff" stroke-width="2" d="M36.7896+106.936L36.7896+83.2702" fill="#ffffff" stroke-linecap="round" opacity="1" stroke-linejoin="round"/>
<path stroke="#ffffff" stroke-width="2" d="M13.1237+83.2702L36.7896+83.2702" fill="#ffffff" stroke-linecap="round" opacity="1" stroke-linejoin="round"/>
<path stroke="#ffffff" stroke-width="2" d="M83.3143+13.0796L83.3143+36.7455" fill="#ffffff" stroke-linecap="round" opacity="1" stroke-linejoin="round"/>
<path stroke="#ffffff" stroke-width="2" d="M106.98+36.7455L83.3143+36.7455" fill="#ffffff" stroke-linecap="round" opacity="1" stroke-linejoin="round"/>
<path stroke="#000000" stroke-width="0.5" d="M27.7865+59.0665C27.7316+59.1775+26.9616+59.9334+26.844+59.9618C26.7265+59.9901+25.72+60.3415+25.72+60.3415L9.41961+44.065C9.41961+44.065+9.06678+43.4519+9.12625+42.9958C9.18571+42.5396+9.79232+42.1739+9.87817+42.1303C10.0127+42.062+10.6683+41.9554+10.8818+42.1265C11.0184+42.2345+27.7985+58.9274+27.7985+58.9274C27.7985+58.9274+27.8413+58.9556+27.7865+59.0665Z" fill="#ffffff" stroke-linecap="round" fill-opacity="0" opacity="1" stroke-linejoin="round"/>
<path stroke="#000000" stroke-width="0.5" d="M26.146+59.2717C26.2569+59.3265+27.0129+60.0965+27.0412+60.2141C27.0696+60.3316+27.421+61.3381+27.421+61.3381L11.1444+77.6385C11.1444+77.6385+10.5313+77.9914+10.0752+77.9319C9.6191+77.8724+9.25338+77.2658+9.20978+77.18C9.14149+77.0455+9.03482+76.3899+9.20598+76.1764C9.31395+76.0398+26.0069+59.2596+26.0069+59.2596C26.0069+59.2596+26.035+59.2168+26.146+59.2717Z" fill="#ffffff" stroke-linecap="round" fill-opacity="0" opacity="1" stroke-linejoin="round"/>
<path stroke="#000000" stroke-width="0.5" d="M93.7496+60.6726C93.6386+60.6178+92.8827+59.8477+92.8543+59.7302C92.8259+59.6126+92.4746+58.6062+92.4746+58.6062L108.751+42.3058C108.751+42.3058+109.364+41.9529+109.82+42.0124C110.276+42.0719+110.642+42.6785+110.686+42.7643C110.754+42.8988+110.861+43.5544+110.69+43.7679C110.582+43.9045+93.8887+60.6847+93.8887+60.6847C93.8887+60.6847+93.8605+60.7275+93.7496+60.6726Z" fill="#ffffff" stroke-linecap="round" fill-opacity="0" opacity="1" stroke-linejoin="round"/>
<path stroke="#000000" stroke-width="0.5" d="M92.1651+60.8583C92.22+60.7473+92.99+59.9914+93.1075+59.9631C93.2251+59.9347+94.2316+59.5833+94.2316+59.5833L110.532+75.8599C110.532+75.8599+110.885+76.4729+110.825+76.9291C110.766+77.3852+110.159+77.7509+110.073+77.7945C109.939+77.8628+109.283+77.9695+109.07+77.7983C108.933+77.6903+92.153+60.9974+92.153+60.9974C92.153+60.9974+92.1103+60.9693+92.1651+60.8583Z" fill="#ffffff" stroke-linecap="round" fill-opacity="0" opacity="1" stroke-linejoin="round"/>
<path stroke="#000000" stroke-width="0.5" d="M0.65738+60.5471C0.489067+60.0494+0.531485+59.6536+0.799363+59.2154C1.06724+58.7773+2.00733+58.7759+2.00733+58.7759L118.515+58.7759C118.515+58.7759+119.135+58.8488+119.39+59.2503C119.645+59.6518+119.662+59.9931+119.535+60.3818C119.336+60.9906+118.673+61.2112+118.673+61.2112L1.44669+61.1768C1.44669+61.1768+0.825693+61.0448+0.65738+60.5471Z" fill="#ffffff" stroke-linecap="round" fill-opacity="0" opacity="1" stroke-linejoin="round"/>
<path stroke="#ffffff" stroke-width="2" d="M118.363+59.9793L1.64776+59.9793" fill="#ffffff" stroke-linecap="round" opacity="1" stroke-linejoin="round"/>
<path stroke="#ffffff" stroke-width="2" d="M109.638+43.245L92.9034+59.9793" fill="#ffffff" stroke-linecap="round" opacity="1" stroke-linejoin="round"/>
<path stroke="#ffffff" stroke-width="2" d="M109.638+76.7136L92.9034+59.9793" fill="#ffffff" stroke-linecap="round" opacity="1" stroke-linejoin="round"/>
<path stroke="#ffffff" stroke-width="2" d="M10.3732+76.7136L27.1075+59.9793" fill="#ffffff" stroke-linecap="round" opacity="1" stroke-linejoin="round"/>
<path stroke="#ffffff" stroke-width="2" d="M10.3732+43.245L27.1075+59.9793" fill="#ffffff" stroke-linecap="round" opacity="1" stroke-linejoin="round"/>
<path stroke="#000000" stroke-opacity="0" stroke-width="2" d="M69.7691+59.9721C69.7691+65.3206+65.4333+69.6564+60.0849+69.6564C54.7364+69.6564+50.4007+65.3206+50.4007+59.9721C50.4007+54.6237+54.7364+50.2879+60.0849+50.2879C65.4333+50.2879+69.7691+54.6237+69.7691+59.9721Z" fill="#ffffff" stroke-linecap="round" opacity="1" stroke-linejoin="round"/>
<path stroke="#000000" stroke-width="0.5" d="M69.7691+59.9721C69.7691+65.3206+65.4333+69.6564+60.0849+69.6564C54.7364+69.6564+50.4007+65.3206+50.4007+59.9721C50.4007+54.6237+54.7364+50.2879+60.0849+50.2879C65.4333+50.2879+69.7691+54.6237+69.7691+59.9721Z" fill="#ffffff" stroke-linecap="round" fill-opacity="0" opacity="1" stroke-linejoin="round"/>
</g>
</g>
</svg>
